{
  "openapi": "3.0.1",
  "info": {
    "title": "Sample API",
    "description": "A sample application with Swagger, Swashbuckle, and API versioning.",
    "contact": {
      "name": "Sample User",
      "email": "sample@user.com"
    },
    "license": {
      "name": "MIT",
      "url": "https://opensource.org/licenses/MIT"
    },
    "version": "v2"
  },
  "paths": {
    "/api/values": {
      "get": {
        "tags": [
          "Values"
        ],
        "parameters": [
          {
            "name": "api-version",
            "in": "query",
            "schema": {
              "type": "string"
            }
          }
        ],
        "responses": {
          "200": {
            "description": "Success",
            "content": {
              "text/plain": {
                "schema": {
                  "type": "string"
                }
              },
              "application/json": {
                "schema": {
                  "type": "string"
                }
              },
              "text/json": {
                "schema": {
                  "type": "string"
                }
              }
            }
          }
        }
      }
    }
  },
  "components": { }
}